digraph {
	graph [fontname=Arial, nodesep=0.125, ranksep=0.25];
	node [fontcolor=white, fontname=Arial, height=0, shape=box, style=filled, width=0];
	edge [fontname=Arial];
	1 [color="#ff0000", fontcolor="#ffffff", fontsize="10.00", label="main\n100.00%\n(0.02%)\n2×"];
	1 -> 1 [arrowsize="1.00", color="#ff0000", fontcolor="#ff0000", fontsize="10.00", label="1×", labeldistance="4.00", penwidth="4.00"];
	1 -> 3 [arrowsize="0.95", color="#f05f02", fontcolor="#f05f02", fontsize="10.00", label="90.26%\n30×", labeldistance="3.61", penwidth="3.61"];
	1 -> 6 [arrowsize="0.35", color="#0d387f", fontcolor="#0d387f", fontsize="10.00", label="9.58%\n491520×", labeldistance="0.50", penwidth="0.50"];
	1 -> 10 [arrowsize="0.35", color="#0d0d73", fontcolor="#0d0d73", fontsize="10.00", label="0.13%\n1×", labeldistance="0.50", penwidth="0.50"];
	2 [color="#ff0000", fontcolor="#ffffff", fontsize="10.00", label="__libc_csu_init\n100.00%\n(0.00%)"];
	2 -> 1 [arrowsize="1.00", color="#ff0000", fontcolor="#ff0000", fontsize="10.00", label="100.00%\n1×", labeldistance="4.00", penwidth="4.00"];
	3 [color="#f05f02", fontcolor="#ffffff", fontsize="10.00", label="conjugatedGradient(double*, double*, double*, int, int, double, int, int)\n90.26%\n(0.00%)\n30×"];
	3 -> 4 [arrowsize="0.93", color="#e98703", fontcolor="#e98703", fontsize="10.00", label="85.74%\n400×", labeldistance="3.43", penwidth="3.43"];
	3 -> 9 [arrowsize="0.35", color="#0d2079", fontcolor="#0d2079", fontsize="10.00", label="4.50%\n240×", labeldistance="0.50", penwidth="0.50"];
	4 [color="#e98703", fontcolor="#ffffff", fontsize="10.00", label="multiplyMatrixVector(double*, double*, double*, int, int, int)\n85.74%\n(54.63%)\n400×"];
	4 -> 5 [arrowsize="0.56", color="#0c9c78", fontcolor="#0c9c78", fontsize="10.00", label="31.10%\n536870912×", labeldistance="1.24", penwidth="1.24"];
	5 [color="#0c9c78", fontcolor="#ffffff", fontsize="10.00", label="getVectorIndex(int, int, int)\n31.11%\n(31.11%)\n536952320×"];
	6 [color="#0d387f", fontcolor="#ffffff", fontsize="10.00", label="solve_ode_cpu(double, double*, int, int, double)\n9.58%\n(0.00%)\n491520×"];
	6 -> 7 [arrowsize="0.35", color="#0d387f", fontcolor="#0d387f", fontsize="10.00", label="9.58%\n491520×", labeldistance="0.50", penwidth="0.50"];
	7 [color="#0d387f", fontcolor="#ffffff", fontsize="10.00", label="solve_Forward_Euler_cpu(double*, double, int, int, double)\n9.58%\n(0.03%)\n491520×"];
	7 -> 8 [arrowsize="0.35", color="#0d387f", fontcolor="#0d387f", fontsize="10.00", label="9.54%\n491520×", labeldistance="0.50", penwidth="0.50"];
	8 [color="#0d387f", fontcolor="#ffffff", fontsize="10.00", label="RHS_Luo_Rudy_1991_cpu(double*, double*, double)\n9.54%\n(9.54%)\n491520×"];
	9 [color="#0d2079", fontcolor="#ffffff", fontsize="10.00", label="allocate_vector(int)\n4.52%\n(4.52%)\n241×"];
	10 [color="#0d0d73", fontcolor="#ffffff", fontsize="10.00", label="simple_assembly_matrix(int, int, double, double, double*, double, double)\n0.13%\n(0.13%)\n1×"];
}
