digraph {
	graph [fontname=Arial, nodesep=0.125, ranksep=0.25];
	node [fontcolor=white, fontname=Arial, height=0, shape=box, style=filled, width=0];
	edge [fontname=Arial];
	1 [color="#ff0000", fontcolor="#ffffff", fontsize="10.00", label="main\n100.00%\n(0.00%)\n2×"];
	1 -> 1 [arrowsize="1.00", color="#ff0000", fontcolor="#ff0000", fontsize="10.00", label="1×", labeldistance="4.00", penwidth="4.00"];
	1 -> 3 [arrowsize="0.99", color="#fd1000", fontcolor="#fd1000", fontsize="10.00", label="98.43%\n30×", labeldistance="3.94", penwidth="3.94"];
	1 -> 4 [arrowsize="0.35", color="#0d1174", fontcolor="#0d1174", fontsize="10.00", label="0.94%\n122880×", labeldistance="0.50", penwidth="0.50"];
	1 -> 6 [arrowsize="0.35", color="#0d0f74", fontcolor="#0d0f74", fontsize="10.00", label="0.63%\n1×", labeldistance="0.50", penwidth="0.50"];
	2 [color="#ff0000", fontcolor="#ffffff", fontsize="10.00", label="__libc_csu_init\n100.00%\n(0.00%)"];
	2 -> 1 [arrowsize="1.00", color="#ff0000", fontcolor="#ff0000", fontsize="10.00", label="100.00%\n1×", labeldistance="4.00", penwidth="4.00"];
	3 [color="#fd1000", fontcolor="#ffffff", fontsize="10.00", label="conjugatedGradient(double*, double*, double*, int, int, double, int, int, int)\n98.43%\n(98.43%)\n30×"];
	4 [color="#0d1174", fontcolor="#ffffff", fontsize="10.00", label="solve_ode_cpu(double, double*, int, int, double)\n0.94%\n(0.00%)\n122880×"];
	4 -> 5 [arrowsize="0.35", color="#0d1174", fontcolor="#0d1174", fontsize="10.00", label="0.94%\n122880×", labeldistance="0.50", penwidth="0.50"];
	5 [color="#0d1174", fontcolor="#ffffff", fontsize="10.00", label="solve_Forward_Euler_cpu(double*, double, int, int, double)\n0.94%\n(0.63%)\n122880×"];
	5 -> 7 [arrowsize="0.35", color="#0d0e73", fontcolor="#0d0e73", fontsize="10.00", label="0.31%\n122880×", labeldistance="0.50", penwidth="0.50"];
	6 [color="#0d0f74", fontcolor="#ffffff", fontsize="10.00", label="simple_assembly_matrix(int, int, double, double, double*, double, double)\n0.63%\n(0.63%)\n1×"];
	7 [color="#0d0e73", fontcolor="#ffffff", fontsize="10.00", label="RHS_Luo_Rudy_1991_cpu(double*, double*, double)\n0.31%\n(0.31%)\n122880×"];
}
