digraph {
	graph [fontname=Arial, nodesep=0.125, ranksep=0.25];
	node [fontcolor=white, fontname=Arial, height=0, shape=box, style=filled, width=0];
	edge [fontname=Arial];
	1 [color="#ff0000", fontcolor="#ffffff", fontsize="10.00", label="main\n100.00%\n(0.01%)\n2×"];
	1 -> 1 [arrowsize="1.00", color="#ff0000", fontcolor="#ff0000", fontsize="10.00", label="1×", labeldistance="4.00", penwidth="4.00"];
	1 -> 3 [arrowsize="1.00", color="#ff0300", fontcolor="#ff0300", fontsize="10.00", label="99.76%\n30×", labeldistance="3.99", penwidth="3.99"];
	1 -> 4 [arrowsize="0.35", color="#0d0d73", fontcolor="#0d0d73", fontsize="10.00", label="0.14%\n1200000×", labeldistance="0.50", penwidth="0.50"];
	2 [color="#ff0000", fontcolor="#ffffff", fontsize="10.00", label="__libc_csu_init\n100.00%\n(0.00%)"];
	2 -> 1 [arrowsize="1.00", color="#ff0000", fontcolor="#ff0000", fontsize="10.00", label="100.00%\n1×", labeldistance="4.00", penwidth="4.00"];
	3 [color="#ff0300", fontcolor="#ffffff", fontsize="10.00", label="conjugatedGradient(double*, double*, double*, int, int, double, int, int, int)\n99.76%\n(99.76%)\n30×"];
	4 [color="#0d0d73", fontcolor="#ffffff", fontsize="10.00", label="solve_ode_cpu(double, double*, int, int, double)\n0.14%\n(0.01%)\n1200000×"];
	4 -> 5 [arrowsize="0.35", color="#0d0d73", fontcolor="#0d0d73", fontsize="10.00", label="0.13%\n1200000×", labeldistance="0.50", penwidth="0.50"];
	5 [color="#0d0d73", fontcolor="#ffffff", fontsize="10.00", label="solve_Forward_Euler_cpu(double*, double, int, int, double)\n0.13%\n(0.04%)\n1200000×"];
}
