digraph {
	graph [fontname=Arial, nodesep=0.125, ranksep=0.25];
	node [fontcolor=white, fontname=Arial, height=0, shape=box, style=filled, width=0];
	edge [fontname=Arial];
	1 [color="#ff0000", fontcolor="#ffffff", fontsize="10.00", label="main\n100.00%\n(0.02%)\n2×"];
	1 -> 1 [arrowsize="1.00", color="#ff0000", fontcolor="#ff0000", fontsize="10.00", label="1×", labeldistance="4.00", penwidth="4.00"];
	1 -> 3 [arrowsize="1.00", color="#ff0200", fontcolor="#ff0200", fontsize="10.00", label="99.83%\n30×", labeldistance="3.99", penwidth="3.99"];
	2 [color="#ff0000", fontcolor="#ffffff", fontsize="10.00", label="__libc_csu_init\n100.00%\n(0.00%)"];
	2 -> 1 [arrowsize="1.00", color="#ff0000", fontcolor="#ff0000", fontsize="10.00", label="100.00%\n1×", labeldistance="4.00", penwidth="4.00"];
	3 [color="#ff0200", fontcolor="#ffffff", fontsize="10.00", label="conjugatedGradient(double*, double*, double*, int, int, double, int, int, int)\n99.83%\n(99.83%)\n30×"];
}
